<?xml version="1.0" encoding="utf-8"?>
<!-- Generator: Adobe Illustrator 24.3.0, SVG Export Plug-In . SVG Version: 6.00 Build 0)  -->
<svg version="1.1" id="Layer_1" xmlns="http://www.w3.org/2000/svg" xmlns:xlink="http://www.w3.org/1999/xlink" x="0px" y="0px"
	 viewBox="0 0 269 512" style="enable-background:new 0 0 269 512;" xml:space="preserve">
<style type="text/css">
	.st0{fill:url(#SVGID_1_);}
</style>
<g>
	<linearGradient id="SVGID_1_" gradientUnits="userSpaceOnUse" x1="0" y1="256" x2="269" y2="256">
		<stop  offset="0" style="stop-color:#FFEA77"/>
		<stop  offset="0.5" style="stop-color:#FFE244"/>
		<stop  offset="1" style="stop-color:#FFD700"/>
	</linearGradient>
	<path class="st0" d="M209.7,467h-24.1c-15.8,0-28.7-12.9-28.7-28.7v-78.5c0-32.2,3.9-53.5,12.8-69.2c8.2-14.5,20.8-24.2,36.7-36.5
		l3.6-2.8c39.5-30.7,61.4-78.8,58.7-128.7l0-0.1L260.4,7c-0.3-3.9-3.5-7-7.5-7H70.4c-4.1,0-7.5,3.4-7.5,7.5s3.4,7.5,7.5,7.5H246
		l7.8,108.5c1.1,21-2.6,41.7-10.5,60.6c-9.1-9-25.5-20.7-49.3-20.7c-2.9,0-5.9,0.2-8.9,0.7c-4.1,0.7-6.9,4.5-6.2,8.6
		c0.7,4.1,4.5,6.9,8.6,6.2c2.3-0.4,4.5-0.5,6.5-0.5c22.4,0,36.7,13.7,42.2,20.1c-8.8,15.6-20.8,29.6-35.3,40.9l-3.6,2.8
		c-1.7,1.3-3.3,2.6-4.9,3.8c-0.2,0.1-0.4,0.2-0.6,0.4c-18.8,12.7-39.7,20-57.3,20c-18,0-39.3-7.6-58.4-20.7
		c-1.4-1.1-2.9-2.3-4.4-3.4l-3.6-2.8c-10.1-7.8-18.9-17-26.3-27c3.3,1,6.9,2,10.6,2.8c11,2.6,21.3,3.8,30.9,3.8
		c6.8,0,13.2-0.6,19.3-1.9c12.7-2.7,26-10.3,40.1-18.4c5.5-3.2,11.3-6.5,16.9-9.4c3.7-1.9,5.1-6.4,3.2-10.1
		c-1.9-3.7-6.4-5.1-10.1-3.2c-5.9,3.1-11.8,6.4-17.4,9.7c-0.2,0.1-0.5,0.3-0.7,0.4l-0.7-0.4c-19.2-11-39-22.4-58.8-22.4
		c-23.8,0-40.3,11.9-49.3,20.8c-7.9-18.9-11.6-39.6-10.5-60.6L23,15h15.1c4.1,0,7.5-3.4,7.5-7.5S42.2,0,38.1,0H16
		c-3.9,0-7.2,3-7.5,7L0.2,122.5l0,0.1c-2.7,49.9,19.2,98,58.7,128.7l3.6,2.8c15.9,12.3,28.5,22,36.7,36.5
		c8.9,15.6,12.8,37,12.8,69.2v78.5c0,15.8-12.9,28.7-28.7,28.7H59.2c-17.2,0-31.2,14-31.2,31.2c0,7.6,6.2,13.8,13.8,13.8H71
		c4.1,0,7.5-3.4,7.5-7.5S75.2,497,71,497H43.1c0.6-8.4,7.6-15,16.2-15h24.1c24.1,0,43.7-19.6,43.7-43.7v-78.5
		c0-41.2-6.7-64.9-18.3-82.1c8.8,2.4,17.5,3.7,25.7,3.7c8.3,0,17-1.3,25.8-3.7c-11.6,17.3-18.3,40.9-18.3,82.1v78.5
		c0,24.1,19.6,43.7,43.7,43.7h24.1c8.5,0,15.5,6.6,16.2,15H103.5c-4.1,0-7.5,3.4-7.5,7.5s3.4,7.5,7.5,7.5h123.7
		c7.6,0,13.8-6.2,13.8-13.8C240.9,481,227,467,209.7,467L209.7,467z M119.2,194.6c-7.1,3.7-13.7,6.6-19.7,7.8
		c-23.4,5-49.8-2.8-63.3-7.8c7-7,20-16.4,38.8-16.4C88.7,178.3,104,186.1,119.2,194.6L119.2,194.6z"/>
</g>
</svg>
